M82 ISA+25 HDRYES
DONE
M82 ISA+25 HDRNO
M78 ISA+25 HDRNO
M78 ISA+15 HDRNO
DONE
M82 ISA+25 HDRYES
M81 ISA+25 HDRNO
M81 ISA+15 HDRNO
DONE
1LE ISA+00 HDRYES
1LE ISA+15 HDRNO
1LE ISA+25 HDRNO
1LE ISA-15 HDRNO
1LE ISA-25 HDRNO
DONE
LRC ISA+00 HDRYES
M69 ISA+00 HDRNO
M69 ISA+15 HDRNO
M69 ISA+25 HDRNO
M69 ISA-15 HDRNO
M69 ISA-25 HDRNO
M70 ISA+00 HDRNO
M71 ISA+00 HDRNO
M72 ISA+00 HDRNO
M73 ISA+00 HDRNO
M74 ISA+00 HDRNO
M75 ISA+00 HDRNO
M75 ISA+15 HDRNO
M75 ISA+25 HDRNO
M75 ISA-15 HDRNO
M75 ISA-25 HDRNO
M77 ISA+00 HDRNO
M77 ISA+00 HDRNO
M78 ISA+00 HDRNO
M79 ISA+00 HDRNO
M80 ISA+00 HDRNO
M81 ISA+00 HDRNO
DONE
M82 ISA+00 HDRNO
M82 ISA+15 HDRNO
M82 ISA+25 HDRNO
M82 ISA-15 HDRNO
M82 ISA-25 HDRNO
DONE
1LE ISA-25
1LE ISA+15
1LE ISA+25

