   1000   2000   4000   5000   6000   8000  10000  12000  14000  16000
  17000  18000  19000  20000  21000  22000  24000  25000  26000  27000
  28500                                                               1
   1000   2000   4000   5000   6000   8000  10000  12000  14000  16000
  17000  18000  19000  20000  21000  22000  24000  25000  26000  27000
  28500                                                               1
   1000   2000   4000   5000   6000   8000  10000  12000  14000  16000
  17000  18000  19000  20000  21000  22000  23000  24000  24500  25000
  25500                                                               1
   1000   2000   4000   5000   6000   8000  10000  12000  14000  16000
  17000  18000  19000  20000  21000  22000  23000  24000  25000  25500
  26000                                                               1
   1000   2000   4000   5000   6000   8000  10000  12000  14000  16000
  17000  18000  19000  20000  21000  22000  23000  24000  24500  250001
   1000   2000   4000   5000   6000   8000  10000  12000  14000  16000
  17000  18000  19000  20000  21000  22000  23000  24000  25000  25500
  26000                                                               1
   1000   2000   4000   5000   6000   8000  10000  12000  14000  16000
  17000  18000  19000  20000  21000  22000  23000  24000  25000  26000
  26500                                                               1
   1000   2000   4000   5000   6000   8000  10000  12000  14000  16000
  17000  18000  19000  20000  21000  22000  23000  24000  25000  26000
  26500                                                               1
   1000   2000   4000   5000   6000   8000  10000  12000  14000  16000
  17000  18000  19000  20000  21000  22000  24000  25000  26000  27000
  28100                                                               1
   1000   2000   4000   5000   6000   8000  10000  12000  14000  16000
  17000  18000  19000  20000  21000  22000  24000  25000  26000  27000
  28500                                                               1
   1000   2000   4000   5000   6000   8000  10000  12000  14000  16000
  17000  18000  19000  20000  21000  22000  24000  25000  26000  27000
  28500                                                               1
   1000   2000   4000   5000   6000   8000  10000  12000  14000  16000
  17000  18000  19000  20000  21000  22000  24000  25000  26000  27000
  28500                                                               1
   1000   2000   4000   5000   6000   8000  10000  12000  14000  16000
  17000  18000  19000  20000  21000  22000  24000  25000  26000  27000
  28500                                                               1
   1000   2000   4000   5000   6000   8000  10000  12000  14000  16000
  17000  18000  19000  20000  21000  22000  24000  25000  26000  27000
  28500                                                               1
   1000   2000   4000   5000   6000   8000  10000  12000  14000  16000
  17000  18000  19000  20000  21000  22000  24000  25000  26000  27000
  28500                                                               11
 .00000 .10000 .20000 .30000 .40000 .50000 .60000                     1
 .00000 .10000 .20000 .30000 .40000 .50000 .60000                     1
 .20000 .30000 .40000 .50000 .60000 .70000                            1
 .20000 .30000 .40000 .50000 .60000 .70000                            1
 .40000 .50000 .60000 .70000 .75000 .80000                            1
 .40000 .50000 .60000 .70000 .75000 .80000                            1
 .50000 .60000 .70000 .75000 .80000                                   1
 .50000 .60000 .70000 .75000 .80000                                   1
 .50000 .60000 .70000 .72000 .75000 .78000 .80000 .85000 .90000       1
 .50000 .60000 .70000 .72000 .75000 .78000 .80000 .85000 .90000       1
 .50000 .60000 .70000 .72000 .75000 .78000 .80000 .85000 .90000       1
 .50000 .60000 .70000 .72000 .75000 .78000 .80000 .85000 .90000       1
 .50000 .60000 .70000 .72000 .75000 .78000 .80000 .85000 .90000       1
 .50000 .60000 .70000 .72000 .75000 .78000 .80000 .85000 .90000       1
 .50000 .60000 .70000 .72000 .75000 .78000 .80000 .85000 .90000       11
      0   5000  10000  15000  20000  25000  27000  29000  31000  33000
  35000  36089  37000  39000  41000                                   11
    745    993   1584   1885   2174   2806   3466   4147   4847   5570
   5935   6306   6692   7085   7490   7901   8753   9209   9726  10325
  11481                                                                 .000  1
    842   1181   1877   2204   2554   3273   4003   4757   5518   6301
   6706   7122   7550   7987   8435   8896   9952  10621  11370  12143
  13302                                                                 .100  1
    934   1338   2108   2490   2886   3668   4458   5257   6075   6923
   7365   7819   8288   8770   9276   9849  11246  11986  12727  13467
  14578                                                                 .200  1
   1085   1527   2318   2734   3144   3959   4798   5625   6495   7395
   7866   8350   8849   9375   9979  10672  12152  12895  13639  14382
  15498                                                                 .300  1
   1300   1698   2482   2891   3313   4156   5014   5889   6798   7734
   8223   8719   9226   9783  10456  11168  12594  13306  14019  14732
  15800                                                                 .400  1
   1347   1761   2565   2994   3406   4283   5119   6025   6932   7878
   8367   8867   9391   9949  10508  11066  12183  12742  13300  13859
  14697                                                                 .500  1
   1422   1842   2629   3030   3429   4300   5115   6019   6900   7823
   8307   8797   9288   9778  10269  10759  11740  12231  12721  13212
  13948                                                                 .600  1
    730   1021   1592   1900   2201   2842   3504   4181   4879   5601
   5969   6338   6724   7118   7520   7930   8782   9240   9761  10358
  11535                                                                 .000  2
    882   1209   1890   2224   2578   3299   4024   4780   5543   6332
   6737   7153   7580   8014   8462   8923   9986  10650  11421  12260
  13519                                                                 .100  2
    972   1359   2125   2510   2906   3679   4473   5275   6103   6951
   7394   7846   8314   8797   9304   9878  11279  12101  12885  13669
  14845                                                                 .200  2
   1120   1534   2333   2748   3163   3966   4814   5651   6520   7421
   7890   8374   8873   9400  10002  10695  12334  13192  14051  14910
  16198                                                                 .300  2
   1322   1717   2492   2904   3323   4174   5035   5915   6822   7756
   8245   8742   9246   9799  10476  11215  12891  13729  14567  15405
  16663                                                                 .400  2
   1355   1768   2573   2999   3411   4305   5146   6050   6954   7899
   8384   8880   9404   9981  10645  11381  12848  13581  14315  15048
  16148                                                                 .500  2
   1430   1847   2632   3031   3435   4318   5145   6043   6921   7837
   8316   8803   9312   9870  10493  11173  12572  13271  13971  14671
  15720                                                                 .600  2
   1007   1382   2153   2545   2946   3723   4512   5305   6129   6978
   7419   7869   8335   8814   9323   9906  10584  11342  11749  12161
  12596                                                                 .200  3
   1148   1554   2372   2795   3209   4010   4845   5676   6543   7442
   7907   8387   8882   9415  10030  10733  11524  12359  12783  13207
  13631                                                                 .300  3
   1346   1735   2536   2956   3378   4211   5063   5936   6841   7770
   8256   8749   9258   9821  10500  11261  12074  12864  13259  13654
  14049                                                                 .400  3
   1374   1796   2613   3044   3459   4340   5173   6069   6969   7907
   8390   8886   9416   9994  10664  11439  12241  13044  13445  13847
  14248                                                                 .500  3
   1449   1872   2666   3066   3468   4352   5171   6060   6932   7843
   8322   8807   9318   9877  10502  11207  11971  12736  13118  13501
  13883                                                                 .600  3
   1553   1949   2667   3042   3431   4265   5105   5957   6786   7645
   8094   8561   9041   9569  10133  10750  11378  11987  12292  12596
  12901                                                                 .700  3
   1049   1439   2178   2582   2988   3772   4567   5352   6170   7015
   7459   7908   8373   8855   9364   9952  10635  11425  12245  12692
  13159                                                                 .200  4
   1189   1584   2408   2837   3255   4061   4891   5715   6576   7477
   7942   8423   8918   9451  10072  10790  11609  12435  13361  13825
  14288                                                                 .300  4
   1397   1767   2582   3005   3427   4262   5099   5967   6874   7804
   8290   8780   9289   9857  10547  11339  12139  12990  13840  14266
  14691                                                                 .400  4
   1408   1825   2664   3102   3516   4385   5208   6098   7001   7938
   8418   8911   9444  10026  10714  11496  12277  13067  13857  14252
  14646                                                                 .500  4
   1478   1907   2710   3118   3524   4393   5204   6089   6959   7869
   8344   8826   9342   9906  10527  11246  12029  12800  13571  13956
  14342                                                                 .600  4
   1580   1979   2705   3082   3469   4305   5141   5985   6810   7664
   8111   8576   9059   9587  10148  10782  11437  12158  12884  13246
  13609                                                                 .700  4
   1465   1809   2631   3053   3474   4296   5113   5961   6857   7777
   8256   8744   9251   9819  10525  11315  12124  13038  13501  13963  .400  5
   1463   1862   2714   3149   3560   4409   5210   6089   6982   7909
   8386   8874   9407   9986  10694  11477  12259  13124  13558  13991  .500  5
   1519   1943   2754   3165   3563   4405   5201   6076   6940   7841
   8313   8789   9303   9869  10510  11229  12005  12803  13201  13600  .600  5
   1620   2020   2741   3117   3498   4310   5134   5972   6788   7635
   8080   8544   9025   9550  10113  10759  11402  12140  12511  12882  .700  5
   1567   1974   2725   3102   3481   4257   5044   5856   6653   7496
   7943   8395   8854   9322   9836  10397  11022  11680  11997  12310  .750  5
   1530   1928   2670   3035   3403   4156   4913   5695   6490   7328
   7768   8211   8662   9118   9597  10112  10681  11272  11597  11933  .800  5
   1537   1881   2697   3134   3545   4348   5137   5986   6884   7789
   8263   8754   9273   9859  10593  11396  12227  13168  14190  14702
  15213                                                                 .400  6
   1540   1927   2791   3217   3628   4430   5218   6106   7005   7918
   8392   8886   9428  10027  10767  11548  12356  13256  14224  14708
  15192                                                                 .500  6
   1580   2001   2821   3224   3607   4416   5203   6081   6952   7845
   8312   8794   9317   9896  10563  11302  12085  12915  13810  14258
  14706                                                                 .600  6
   1677   2085   2802   3166   3542   4329   5136   5966   6786   7628
   8065   8534   9022   9558  10139  10811  11466  12212  13021  13436
  13851                                                                 .700  6
   1619   2037   2778   3149   3525   4280   5051   5847   6646   7486
   7922   8378   8841   9322   9853  10436  11070  11741  12411  12803
  13202                                                                 .750  6
   1579   1987   2718   3080   3446   4182   4923   5688   6481   7315
   7746   8186   8639   9112   9608  10133  10722  11326  11992  12338
  12687                                                                 .800  6
   1573   1957   2819   3253   3662   4491   5275   6155   7056   7968
   8440   8934   9477  10067  10803  11577  12391  13296  14265  15235
  15720                                                                 .500  7
   1608   2029   2860   3269   3660   4461   5247   6130   7003   7894
   8358   8840   9361   9931  10591  11328  12113  12945  13861  14777
  15235                                                                 .600  7
   1701   2105   2837   3203   3578   4367   5175   6010   6834   7680
   8113   8575   9061   9592  10162  10831  11491  12237  13045  13858
  14264                                                                 .700  7
   1642   2062   2814   3181   3556   4314   5089   5890   6691   7532
   7967   8417   8879   9354   9878  10457  11089  11758  12436  13217
  13609                                                                 .750  7
   1600   2013   2748   3107   3473   4213   4958   5728   6522   7356
   7785   8222   8674   9143   9633  10152  10743  11349  12013  12715
  13098                                                                 .800  7
   1610   1991   2849   3291   3701   4545   5333   6208   7108   8020
   8490   8984   9526  10110  10842  11615  12429  13341  14314  15288
  15774                                                                 .500  8
   1644   2058   2903   3309   3701   4518   5304   6183   7054   7943
   8407   8888   9410   9971  10627  11367  12143  12987  13902  14813
  15268                                                                 .600  8
   1729   2134   2874   3251   3624   4411   5219   6058   6887   7729
   8163   8621   9108   9634  10195  10856  11520  12267  13080  13923
  14345                                                                 .700  8
   1667   2085   2851   3221   3595   4355   5128   5934   6740   7584
   8019   8463   8923   9396   9912  10485  11117  11783  12466  13248
  13640                                                                 .750  8
   1624   2038   2784   3140   3506   4249   4996   5769   6567   7404
   7836   8268   8714   9181   9665  10175  10770  11373  12039  12747
  13122                                                                 .800  8
   1652   2030   2888   3323   3743   4596   5385   6262   7157   8068
   8536   9032   9577  10160  10897  11668  13400  14382  15365  16347
  17428                                                                 .500  9
   1689   2094   2935   3349   3744   4574   5361   6229   7099   7989
   8451   8933   9456  10018  10677  11416  13044  13967  14894  15822
  16841                                                                 .600  9
   1761   2166   2915   3299   3679   4460   5263   6103   6932   7771
   8207   8662   9152   9682  10241  10899  12311  13128  13985  14845
  15792                                                                 .700  9
   1734   2145   2906   3289   3668   4437   5227   6058   6877   7716
   8151   8602   9076   9582  10120  10745  12081  12862  13686  14521
  15440                                                                 .720  9
   1697   2116   2890   3270   3641   4399   5167   5976   6784   7627
   8063   8504   8965   9440   9956  10527  11823  12510  13297  14088
  14958                                                                 .750  9
   1662   2089   2870   3243   3610   4356   5102   5886   6680   7513
   7943   8376   8831   9310   9815  10363  11602  12307  13049  13826
  14682                                                                 .780  9
   1650   2065   2822   3184   3546   4291   5030   5807   6609   7451
   7882   8310   8755   9223   9707  10213  11413  12078  12789  13547
  14383                                                                 .800  9
   1630   2019   2733   3080   3432   4155   4876   5639   6430   7252
   7681   8098   8538   8998   9454   9926  10971  11554  12191  12878
  13670                                                                 .850  9
   1613   1981   2665   3000   3337   4033   4747   5486   6250   7033
   7441   7843   8250   8668   9110   9548  10501  11024  11600  12204
  12920                                                                 .900  9
   1700   2078   2930   3368   3786   4642   5438   6310   7204   8114
   8582   9079   9624  10216  10965  11738  13480  14437  15393  16349
  17783                                                                 .500 10
   1740   2133   2977   3389   3790   4628   5411   6275   7141   8030
   8490   8974   9502  10070  10739  11480  13109  14041  14975  15910
  17312                                                                 .600 10
   1797   2203   2962   3345   3728   4519   5316   6147   6970   7810
   8246   8701   9195   9728  10295  10954  12372  13192  14051  14914
  16207                                                                 .700 10
   1766   2181   2954   3337   3721   4496   5275   6101   6914   7754
   8190   8639   9117   9627  10170  10801  12135  12923  13752  14592
  15852                                                                 .720 10
   1728   2150   2934   3320   3702   4454   5211   6017   6823   7665
   8101   8541   9004   9484  10003  10581  11874  12565  13360  14164
  15370                                                                 .750 10
   1693   2122   2912   3291   3668   4403   5141   5924   6720   7549
   7977   8408   8864   9345   9850  10403  11645  12350  13100  13877
  15045                                                                 .780 10
   1681   2097   2862   3232   3598   4334   5066   5843   6647   7489
   7920   8348   8794   9265   9751  10264  11462  12128  12847  13619
  14800                                                                 .800 10
   1658   2050   2770   3125   3473   4194   4909   5673   6465   7292
   7720   8139   8576   9037   9494   9967  11016  11605  12242  12934
  14021                                                                 .850 10
   1639   2010   2702   3039   3371   4067   4777   5516   6281   7069
   7481   7887   8288   8704   9146   9585  10543  11067  11646  12252
  13248                                                                 .900 10
   1745   2127   2977   3416   3837   4697   5494   6364   7260   8168
   8634   9134   9683  10283  11040  11812  13569  14511  15454  16396
  17809                                                                 .500 11
   1788   2178   3023   3436   3838   4679   5468   6326   7189   8078
   8538   9023   9556  10127  10805  11550  13188  14110  15029  15947
  17324                                                                 .600 11
   1846   2244   3008   3393   3775   4572   5370   6193   7012   7853
   8288   8743   9241   9778  10354  11015  12442  13261  14129  15015
  16342                                                                 .700 11
   1835   2224   3000   3384   3768   4549   5332   6147   6957   7797
   8232   8681   9160   9675  10223  10859  12199  12986  13824  14679
  15961                                                                 .720 11
   1763   2188   2985   3369   3750   4509   5267   6064   6865   7706
   8142   8582   9047   9530  10053  10639  11933  12626  13426  14250
  15489                                                                 .750 11
   1726   2159   2963   3344   3722   4462   5194   5970   6763   7588
   8014   8445   8900   9384   9890  10448  11693  12400  13151  13941
  15128                                                                 .780 11
   1711   2132   2909   3283   3657   4390   5116   5888   6690   7528
   7960   8389   8835   9308   9797  10317  11522  12185  12906  13681
  14859                                                                 .800 11
   1689   2082   2811   3170   3529   4238   4951   5713   6504   7331
   7759   8180   8615   9078   9538  10012  11067  11658  12297  12991
  14094                                                                 .850 11
   1669   2041   2740   3085   3418   4107   4813   5551   6318   7111
   7522   7927   8328   8742   9187   9627  10589  11113  11698  12306
  13306                                                                 .900 11
   1770   2156   3004   3445   3867   4731   5529   6401   7297   8203
   8666   9166   9719  10323  11086  11859  13624  14559  15493  16428
  17829                                                                 .500 12
   1817   2220   3051   3464   3872   4711   5502   6357   7220   8108
   8568   9054   9590  10164  10845  11591  13234  14155  15064  15974
  17338                                                                 .600 12
   1880   2267   3034   3423   3802   4600   5402   6223   7040   7881
   8316   8771   9270   9808  10390  11055  12483  13303  14167  15040
  16349                                                                 .700 12
   1840   2245   3027   3417   3795   4578   5363   6176   6984   7824
   8259   8708   9187   9704  10256  10895  12240  13028  13865  14721
  16004                                                                 .720 12
   1807   2212   3012   3397   3778   4539   5300   6092   6891   7734
   8168   8608   9073   9557  10084  10674  11969  12664  13465  14301
  15558                                                                 .750 12
   1773   2181   2992   3371   3749   4493   5228   5998   6788   7631
   8065   8500   8958   9437   9939  10491  11731  12436  13188  13993
  15204                                                                 .780 12
   1730   2155   2942   3311   3685   4422   5150   5917   6716   7553
   7984   8415   8859   9333   9825  10350  11558  12221  12942  13725
  14922                                                                 .800 12
   1707   2104   2839   3198   3563   4271   4980   5738   6532   7355
   7782   8204   8639   9103   9564  10041  11099  11691  12330  13026
  14171                                                                 .850 12
   1687   2060   2763   3110   3449   4131   4837   5574   6341   7134
   7545   7951   8352   8766   9211   9654  10620  11142  11728  12337
  13342                                                                 .900 12
   1788   2181   3032   3475   3898   4765   5553   6428   7324   8231
   8694   9195   9749  10358  11122  11898  13667  14614  15569  16524
  17956                                                                 .500 13
   1823   2236   3078   3492   3902   4735   5525   6380   7244   8132
   8594   9081   9618  10196  10881  11626  13273  14192  15096  16001
  17357                                                                 .600 13
   1907   2296   3061   3451   3826   4622   5424   6245   7062   7904
   8339   8795   9294   9836  10420  11085  12514  13336  14207  15090
  16416                                                                 .700 13
   1867   2270   3053   3444   3817   4598   5385   6198   7006   7846
   8282   8731   9212   9730  10284  10923  12270  13061  13897  14746
  16018                                                                 .720 13
   1813   2235   3039   3425   3799   4559   5322   6112   6912   7756
   8189   8630   9095   9581  10109  10703  11997  12697  13497  14327
  15575                                                                 .750 13
   1792   2204   3018   3397   3770   4511   5250   6019   6809   7652
   8087   8524   8980   9460   9963  10518  11759  12467  13222  14020
  15220                                                                 .780 13
   1751   2178   2968   3334   3706   4440   5171   5937   6736   7574
   8004   8437   8880   9354   9847  10376  11585  12251  12973  13756
  14950                                                                 .800 13
   1725   2124   2865   3221   3584   4291   4999   5758   6553   7375
   7802   8224   8657   9123   9586  10064  11124  11718  12359  13058
  14160                                                                 .850 13
   1704   2080   2783   3130   3469   4149   4855   5592   6361   7152
   7563   7969   8370   8785   9231   9674  10645  11167  11753  12363
  13372                                                                 .900 13
   1826   2232   3096   3544   3969   4843   5612   6489   7385   8296
   8761   9262   9819  10437  11208  11984  13758  14712  15675  16638
  18082                                                                 .500 14
   1870   2288   3140   3555   3969   4801   5578   6434   7301   8192
   8654   9142   9681  10268  10961  11707  13359  14277  15184  16092
  17452                                                                 .600 14
   1961   2359   3119   3510   3889   4674   5474   6295   7113   7955
   8392   8849   9353   9899  10488  11156  12593  13420  14290  15179
  16512                                                                 .700 14
   1938   2332   3112   3503   3879   4648   5435   6247   7056   7897
   8333   8784   9268   9790  10350  10993  12342  13139  13981  14840
  16129                                                                 .720 14
   1870   2287   3096   3484   3857   4606   5370   6162   6961   7805
   8240   8682   9149   9638  10169  10769  12065  12769  13575  14407
  15659                                                                 .750 14
   1817   2258   3076   3457   3824   4557   5298   6066   6855   7700
   8136   8573   9031   9513  10020  10579  11825  12537  13293  14101
  15325                                                                 .780 14
   1799   2217   3024   3393   3757   4484   5219   5984   6780   7621
   8052   8485   8931   9408   9902  10434  11650  12318  13042  13831
  15039                                                                 .800 14
   1769   2172   2924   3277   3629   4334   5048   5803   6598   7420
   7849   8272   8705   9172   9637  10117  11182  11779  12421  13123
  14260                                                                 .850 14
   1743   2125   2837   3178   3518   4191   4896   5635   6406   7197
   7609   8012   8414   8829   9277   9721  10699  11223  11813  12423
  13438                                                                 .900 14
   1854   2304   3161   3616   4047   4928   5697   6558   7454   8370
   8836   9336   9897  10521  11299  12080  13863  14816  15781  16746
  18194                                                                 .500 15
   1953   2345   3201   3626   4043   4880   5638   6494   7365   8257
   8722   9210   9755  10345  11043  11793  13445  14372  15284  16195
  17562                                                                 .600 15
   2014   2416   3181   3575   3955   4743   5529   6351   7170   8016
   8453   8911   9418   9966  10562  11230  12675  13500  14377  15262
  16590                                                                 .700 15
   1977   2389   3172   3566   3944   4713   5489   6302   7112   7955
   8394   8844   9331   9855  10420  11067  12422  13218  14066  14929
  16224                                                                 .720 15
   1938   2352   3156   3546   3919   4664   5423   6215   7016   7859
   8296   8739   9209   9700  10236  10839  12139  12848  13657  14501
  15772                                                                 .750 15
   1875   2317   3135   3517   3886   4609   5351   6118   6908   7753
   8191   8628   9087   9572  10084  10648  11899  12613  13372  14189
  15434                                                                 .780 15
   1853   2287   3082   3453   3818   4535   5272   6035   6833   7674
   8106   8538   8986   9465   9966  10502  11724  12392  13122  13914
  15130                                                                 .800 15
   1817   2226   2981   3335   3689   4382   5099   5853   6649   7471
   7900   8322   8759   9227   9695  10178  11249  11849  12493  13198
  14332                                                                 .850 15
   1787   2174   2896   3241   3573   4242   4944   5685   6456   7244
   7657   8061   8466   8882   9331   9778  10758  11282  11874  12488
  13507                                                                 .900 15